<?xml version="1.0" encoding="UTF-8"?>
<testsuite name="com.prueba.runners.ListaUsuarioRunner" tests="0" skipped="0" failures="0" errors="0" timestamp="1970-01-01T00:00:00" hostname="DESKTOP-I0C78UK" time="0.0">
  <properties/>
  <system-out><![CDATA[Feature from file:///D:/wolox/src/test/resources/com/prueba/features/listadoUsuario.feature

?[31mFailed scenarios:?[0m
?[31mfile:///D:/wolox/src/test/resources/com/prueba/features/listadoUsuario.feature:30?[0m# validar el esquema de la respuesta del servicio
?[31mfile:///D:/wolox/src/test/resources/com/prueba/features/listadoUsuario.feature:31?[0m# validar el esquema de la respuesta del servicio
?[31mfile:///D:/wolox/src/test/resources/com/prueba/features/listadoUsuario.feature:42?[0m# validar response y paginacon  como usuario administrador

6 Scenarios (?[31m3 failed?[0m, ?[32m3 passed?[0m)
18 Steps (?[31m3 failed?[0m, ?[32m15 passed?[0m)
0m33.202s


java.lang.AssertionError: 1 expectation failed.
Response body doesn't match expectation.
Expected: The content to match the given JSON schema.
warning: the following keywords are unknown and will be ignored: [$id, examples]
    level: "warning"
    schema: {"loadingURI":"file:/D:/wolox/build/resources/test/listadoUsuarioSchema.json#","pointer":""}
    domain: "syntax"
    ignored: ["$id","examples"]
warning: the following keywords are unknown and will be ignored: [$id, examples]
    level: "warning"
    schema: {"loadingURI":"file:/D:/wolox/build/resources/test/listadoUsuarioSchema.json#","pointer":"/properties/count"}
    domain: "syntax"
    ignored: ["$id","examples"]
warning: the following keywords are unknown and will be ignored: [$id, examples]
    level: "warning"
    schema: {"loadingURI":"file:/D:/wolox/build/resources/test/listadoUsuarioSchema.json#","pointer":"/properties/current_page"}
    domain: "syntax"
    ignored: ["$id","examples"]
warning: the following keywords are unknown and will be ignored: [$id, examples]
    level: "warning"
    schema: {"loadingURI":"file:/D:/wolox/build/resources/test/listadoUsuarioSchema.json#","pointer":"/properties/current_page_link"}
    domain: "syntax"
    ignored: ["$id","examples"]
warning: the following keywords are unknown and will be ignored: [$id, examples]
    level: "warning"
    schema: {"loadingURI":"file:/D:/wolox/build/resources/test/listadoUsuarioSchema.json#","pointer":"/properties/first_page_link"}
    domain: "syntax"
    ignored: ["$id","examples"]
warning: the following keywords are unknown and will be ignored: [$id, examples]
    level: "warning"
    schema: {"loadingURI":"file:/D:/wolox/build/resources/test/listadoUsuarioSchema.json#","pointer":"/properties/last_page_link"}
    domain: "syntax"
    ignored: ["$id","examples"]
warning: the following keywords are unknown and will be ignored: [$id, examples]
    level: "warning"
    schema: {"loadingURI":"file:/D:/wolox/build/resources/test/listadoUsuarioSchema.json#","pointer":"/properties/limit"}
    domain: "syntax"
    ignored: ["$id","examples"]
warning: the following keywords are unknown and will be ignored: [$id, examples]
    level: "warning"
    schema: {"loadingURI":"file:/D:/wolox/build/resources/test/listadoUsuarioSchema.json#","pointer":"/properties/n_page_link"}
    domain: "syntax"
    ignored: ["$id","examples"]
warning: the following keywords are unknown and will be ignored: [$id, examples]
    level: "warning"
    schema: {"loadingURI":"file:/D:/wolox/build/resources/test/listadoUsuarioSchema.json#","pointer":"/properties/next_page"}
    domain: "syntax"
    ignored: ["$id","examples"]
warning: the following keywords are unknown and will be ignored: [$id, examples]
    level: "warning"
    schema: {"loadingURI":"file:/D:/wolox/build/resources/test/listadoUsuarioSchema.json#","pointer":"/properties/next_page_link"}
    domain: "syntax"
    ignored: ["$id","examples"]
warning: the following keywords are unknown and will be ignored: [$id, examples]
    level: "warning"
    schema: {"loadingURI":"file:/D:/wolox/build/resources/test/listadoUsuarioSchema.json#","pointer":"/properties/offset"}
    domain: "syntax"
    ignored: ["$id","examples"]
warning: the following keywords are unknown and will be ignored: [$id, examples]
    level: "warning"
    schema: {"loadingURI":"file:/D:/wolox/build/resources/test/listadoUsuarioSchema.json#","pointer":"/properties/page"}
    domain: "syntax"
    ignored: ["$id","examples"]
warning: the following keywords are unknown and will be ignored: [$id]
    level: "warning"
    schema: {"loadingURI":"file:/D:/wolox/build/resources/test/listadoUsuarioSchema.json#","pointer":"/properties/page/items"}
    domain: "syntax"
    ignored: ["$id"]
warning: the following keywords are unknown and will be ignored: [$id, examples]
    level: "warning"
    schema: {"loadingURI":"file:/D:/wolox/build/resources/test/listadoUsuarioSchema.json#","pointer":"/properties/page/items/anyOf/0"}
    domain: "syntax"
    ignored: ["$id","examples"]
warning: the following keywords are unknown and will be ignored: [$id, examples]
    level: "warning"
    schema: {"loadingURI":"file:/D:/wolox/build/resources/test/listadoUsuarioSchema.json#","pointer":"/properties/page/items/anyOf/0/properties/email"}
    domain: "syntax"
    ignored: ["$id","examples"]
warning: the following keywords are unknown and will be ignored: [$id, examples]
    level: "warning"
    schema: {"loadingURI":"file:/D:/wolox/build/resources/test/listadoUsuarioSchema.json#","pointer":"/properties/page/items/anyOf/0/properties/first_name"}
    domain: "syntax"
    ignored: ["$id","examples"]
warning: the following keywords are unknown and will be ignored: [$id, examples]
    level: "warning"
    schema: {"loadingURI":"file:/D:/wolox/build/resources/test/listadoUsuarioSchema.json#","pointer":"/properties/page/items/anyOf/0/properties/last_name"}
    domain: "syntax"
    ignored: ["$id","examples"]
warning: the following keywords are unknown and will be ignored: [$id, examples]
    level: "warning"
    schema: {"loadingURI":"file:/D:/wolox/build/resources/test/listadoUsuarioSchema.json#","pointer":"/properties/page/items/anyOf/0/properties/role"}
    domain: "syntax"
    ignored: ["$id","examples"]
warning: the following keywords are unknown and will be ignored: [$id, examples]
    level: "warning"
    schema: {"loadingURI":"file:/D:/wolox/build/resources/test/listadoUsuarioSchema.json#","pointer":"/properties/previous_page"}
    domain: "syntax"
    ignored: ["$id","examples"]
warning: the following keywords are unknown and will be ignored: [$id, examples]
    level: "warning"
    schema: {"loadingURI":"file:/D:/wolox/build/resources/test/listadoUsuarioSchema.json#","pointer":"/properties/previous_page_link"}
    domain: "syntax"
    ignored: ["$id","examples"]
warning: the following keywords are unknown and will be ignored: [$id, examples]
    level: "warning"
    schema: {"loadingURI":"file:/D:/wolox/build/resources/test/listadoUsuarioSchema.json#","pointer":"/properties/total_count"}
    domain: "syntax"
    ignored: ["$id","examples"]
warning: the following keywords are unknown and will be ignored: [$id, examples]
    level: "warning"
    schema: {"loadingURI":"file:/D:/wolox/build/resources/test/listadoUsuarioSchema.json#","pointer":"/properties/total_pages"}
    domain: "syntax"
    ignored: ["$id","examples"]
error: object has missing required properties (["current_page_link","first_page_link","last_page_link","n_page_link","next_page_link","previous_page_link"])
    level: "error"
    schema: {"loadingURI":"file:/D:/wolox/build/resources/test/listadoUsuarioSchema.json#","pointer":""}
    instance: {"pointer":""}
    domain: "validation"
    keyword: "required"
    required: ["count","current_page","current_page_link","first_page_link","last_page_link","limit","n_page_link","next_page","next_page_link","offset","page","previous_page","previous_page_link","total_count","total_pages"]
    missing: ["current_page_link","first_page_link","last_page_link","n_page_link","next_page_link","previous_page_link"]

  Actual: {"total_count":277,"count":10,"total_pages":28,"limit":10,"offset":0,"current_page":1,"page":[{"first_name":"Hernan","last_name":"Garcia98","email":"hernan003@wolox.com.ar","role":"regular"},{"first_name":"Hernan","last_name":"Garcia","email":"hernan000@wolox.com.ar","role":"regular"},{"first_name":"Ricardo","last_name":"Pantoja","email":"emilia.nava@wolox.com.ar","role":"regular"},{"first_name":"Hernan","last_name":"Garcia","email":"h6@wolox.com.ar","role":"regular"},{"first_name":"5","last_name":"4","email":"alfredo.cedillo@wolox.com.ar","role":"regular"},{"first_name":"Tomás","last_name":"Griego","email":"mayte.aguilera@wolox.com.ar","role":"regular"},{"first_name":"Jose Antonio","last_name":"Bermudez","email":"jose.beruda@wolox.com.ar","role":"regular"},{"first_name":"Juan","last_name":"Perez","email":"jperez@wolox.com.ar","role":"regular"},{"first_name":"Hernan","last_name":"Garcia","email":"h7@wolox.com.ar","role":"regular"},{"first_name":"1","last_name":"4","email":"miguel.contreras@wolox.com.ar","role":"regular"}],"previous_page":null,"next_page":2}

	at net.serenitybdd.screenplay.ErrorTally.throwSummaryExceptionFrom(ErrorTally.java:36)
	at net.serenitybdd.screenplay.ErrorTally.reportAnyErrors(ErrorTally.java:30)
	at net.serenitybdd.screenplay.Actor.should(Actor.java:316)
	at com.prueba.stepdefinitions.ComunStepDefinition.validoElEsquemaDelResponseConElEsquemaEsquema(ComunStepDefinition.java:32)
	at ✽.valido el esquema del response con el esquema "listadoUsuarioSchema.json"(file:///D:/wolox/src/test/resources/com/prueba/features/listadoUsuario.feature:26)

java.lang.AssertionError: 1 expectation failed.
Response body doesn't match expectation.
Expected: The content to match the given JSON schema.
warning: the following keywords are unknown and will be ignored: [$id, examples]
    level: "warning"
    schema: {"loadingURI":"file:/D:/wolox/build/resources/test/listadoUsuarioSchema.json#","pointer":""}
    domain: "syntax"
    ignored: ["$id","examples"]
warning: the following keywords are unknown and will be ignored: [$id, examples]
    level: "warning"
    schema: {"loadingURI":"file:/D:/wolox/build/resources/test/listadoUsuarioSchema.json#","pointer":"/properties/count"}
    domain: "syntax"
    ignored: ["$id","examples"]
warning: the following keywords are unknown and will be ignored: [$id, examples]
    level: "warning"
    schema: {"loadingURI":"file:/D:/wolox/build/resources/test/listadoUsuarioSchema.json#","pointer":"/properties/current_page"}
    domain: "syntax"
    ignored: ["$id","examples"]
warning: the following keywords are unknown and will be ignored: [$id, examples]
    level: "warning"
    schema: {"loadingURI":"file:/D:/wolox/build/resources/test/listadoUsuarioSchema.json#","pointer":"/properties/current_page_link"}
    domain: "syntax"
    ignored: ["$id","examples"]
warning: the following keywords are unknown and will be ignored: [$id, examples]
    level: "warning"
    schema: {"loadingURI":"file:/D:/wolox/build/resources/test/listadoUsuarioSchema.json#","pointer":"/properties/first_page_link"}
    domain: "syntax"
    ignored: ["$id","examples"]
warning: the following keywords are unknown and will be ignored: [$id, examples]
    level: "warning"
    schema: {"loadingURI":"file:/D:/wolox/build/resources/test/listadoUsuarioSchema.json#","pointer":"/properties/last_page_link"}
    domain: "syntax"
    ignored: ["$id","examples"]
warning: the following keywords are unknown and will be ignored: [$id, examples]
    level: "warning"
    schema: {"loadingURI":"file:/D:/wolox/build/resources/test/listadoUsuarioSchema.json#","pointer":"/properties/limit"}
    domain: "syntax"
    ignored: ["$id","examples"]
warning: the following keywords are unknown and will be ignored: [$id, examples]
    level: "warning"
    schema: {"loadingURI":"file:/D:/wolox/build/resources/test/listadoUsuarioSchema.json#","pointer":"/properties/n_page_link"}
    domain: "syntax"
    ignored: ["$id","examples"]
warning: the following keywords are unknown and will be ignored: [$id, examples]
    level: "warning"
    schema: {"loadingURI":"file:/D:/wolox/build/resources/test/listadoUsuarioSchema.json#","pointer":"/properties/next_page"}
    domain: "syntax"
    ignored: ["$id","examples"]
warning: the following keywords are unknown and will be ignored: [$id, examples]
    level: "warning"
    schema: {"loadingURI":"file:/D:/wolox/build/resources/test/listadoUsuarioSchema.json#","pointer":"/properties/next_page_link"}
    domain: "syntax"
    ignored: ["$id","examples"]
warning: the following keywords are unknown and will be ignored: [$id, examples]
    level: "warning"
    schema: {"loadingURI":"file:/D:/wolox/build/resources/test/listadoUsuarioSchema.json#","pointer":"/properties/offset"}
    domain: "syntax"
    ignored: ["$id","examples"]
warning: the following keywords are unknown and will be ignored: [$id, examples]
    level: "warning"
    schema: {"loadingURI":"file:/D:/wolox/build/resources/test/listadoUsuarioSchema.json#","pointer":"/properties/page"}
    domain: "syntax"
    ignored: ["$id","examples"]
warning: the following keywords are unknown and will be ignored: [$id]
    level: "warning"
    schema: {"loadingURI":"file:/D:/wolox/build/resources/test/listadoUsuarioSchema.json#","pointer":"/properties/page/items"}
    domain: "syntax"
    ignored: ["$id"]
warning: the following keywords are unknown and will be ignored: [$id, examples]
    level: "warning"
    schema: {"loadingURI":"file:/D:/wolox/build/resources/test/listadoUsuarioSchema.json#","pointer":"/properties/page/items/anyOf/0"}
    domain: "syntax"
    ignored: ["$id","examples"]
warning: the following keywords are unknown and will be ignored: [$id, examples]
    level: "warning"
    schema: {"loadingURI":"file:/D:/wolox/build/resources/test/listadoUsuarioSchema.json#","pointer":"/properties/page/items/anyOf/0/properties/email"}
    domain: "syntax"
    ignored: ["$id","examples"]
warning: the following keywords are unknown and will be ignored: [$id, examples]
    level: "warning"
    schema: {"loadingURI":"file:/D:/wolox/build/resources/test/listadoUsuarioSchema.json#","pointer":"/properties/page/items/anyOf/0/properties/first_name"}
    domain: "syntax"
    ignored: ["$id","examples"]
warning: the following keywords are unknown and will be ignored: [$id, examples]
    level: "warning"
    schema: {"loadingURI":"file:/D:/wolox/build/resources/test/listadoUsuarioSchema.json#","pointer":"/properties/page/items/anyOf/0/properties/last_name"}
    domain: "syntax"
    ignored: ["$id","examples"]
warning: the following keywords are unknown and will be ignored: [$id, examples]
    level: "warning"
    schema: {"loadingURI":"file:/D:/wolox/build/resources/test/listadoUsuarioSchema.json#","pointer":"/properties/page/items/anyOf/0/properties/role"}
    domain: "syntax"
    ignored: ["$id","examples"]
warning: the following keywords are unknown and will be ignored: [$id, examples]
    level: "warning"
    schema: {"loadingURI":"file:/D:/wolox/build/resources/test/listadoUsuarioSchema.json#","pointer":"/properties/previous_page"}
    domain: "syntax"
    ignored: ["$id","examples"]
warning: the following keywords are unknown and will be ignored: [$id, examples]
    level: "warning"
    schema: {"loadingURI":"file:/D:/wolox/build/resources/test/listadoUsuarioSchema.json#","pointer":"/properties/previous_page_link"}
    domain: "syntax"
    ignored: ["$id","examples"]
warning: the following keywords are unknown and will be ignored: [$id, examples]
    level: "warning"
    schema: {"loadingURI":"file:/D:/wolox/build/resources/test/listadoUsuarioSchema.json#","pointer":"/properties/total_count"}
    domain: "syntax"
    ignored: ["$id","examples"]
warning: the following keywords are unknown and will be ignored: [$id, examples]
    level: "warning"
    schema: {"loadingURI":"file:/D:/wolox/build/resources/test/listadoUsuarioSchema.json#","pointer":"/properties/total_pages"}
    domain: "syntax"
    ignored: ["$id","examples"]
error: object has missing required properties (["current_page_link","first_page_link","last_page_link","n_page_link","next_page_link","previous_page_link"])
    level: "error"
    schema: {"loadingURI":"file:/D:/wolox/build/resources/test/listadoUsuarioSchema.json#","pointer":""}
    instance: {"pointer":""}
    domain: "validation"
    keyword: "required"
    required: ["count","current_page","current_page_link","first_page_link","last_page_link","limit","n_page_link","next_page","next_page_link","offset","page","previous_page","previous_page_link","total_count","total_pages"]
    missing: ["current_page_link","first_page_link","last_page_link","n_page_link","next_page_link","previous_page_link"]

  Actual: {"total_count":276,"count":10,"total_pages":28,"limit":10,"offset":0,"current_page":1,"page":[{"first_name":"Hernan","last_name":"Garcia98","email":"hernan003@wolox.com.ar","role":"regular"},{"first_name":"Hernan","last_name":"Garcia","email":"hernan000@wolox.com.ar","role":"regular"},{"first_name":"Ricardo","last_name":"Pantoja","email":"emilia.nava@wolox.com.ar","role":"regular"},{"first_name":"Hernan","last_name":"Garcia","email":"h6@wolox.com.ar","role":"regular"},{"first_name":"5","last_name":"4","email":"alfredo.cedillo@wolox.com.ar","role":"regular"},{"first_name":"Tomás","last_name":"Griego","email":"mayte.aguilera@wolox.com.ar","role":"regular"},{"first_name":"Jose Antonio","last_name":"Bermudez","email":"jose.beruda@wolox.com.ar","role":"regular"},{"first_name":"Juan","last_name":"Perez","email":"jperez@wolox.com.ar","role":"regular"},{"first_name":"Hernan","last_name":"Garcia","email":"h7@wolox.com.ar","role":"regular"},{"first_name":"1","last_name":"4","email":"miguel.contreras@wolox.com.ar","role":"regular"}],"previous_page":null,"next_page":2}

	at net.serenitybdd.screenplay.ErrorTally.throwSummaryExceptionFrom(ErrorTally.java:36)
	at net.serenitybdd.screenplay.ErrorTally.reportAnyErrors(ErrorTally.java:30)
	at net.serenitybdd.screenplay.Actor.should(Actor.java:316)
	at com.prueba.stepdefinitions.ComunStepDefinition.validoElEsquemaDelResponseConElEsquemaEsquema(ComunStepDefinition.java:32)
	at ✽.valido el esquema del response con el esquema "listadoUsuarioSchema.json"(file:///D:/wolox/src/test/resources/com/prueba/features/listadoUsuario.feature:26)

java.lang.AssertionError: El servicio retorno los usurarios de manera incorrecta
	at org.hamcrest.MatcherAssert.assertThat(MatcherAssert.java:26)
	at com.prueba.stepdefinitions.ListaUsuariosStepDefinition.seValidaQueElResponseSeaCorrecto(ListaUsuariosStepDefinition.java:34)
	at ✽.se valida que el response sea correcto(file:///D:/wolox/src/test/resources/com/prueba/features/listadoUsuario.feature:39)


]]></system-out>
  <system-err><![CDATA[[Test worker] WARN io.cucumber.junit.CucumberSerenityRunner - By default Cucumber is running in --non-strict mode.
This default will change to --strict and --non-strict will be removed.
You can use --strict or @CucumberOptions(strict = true) to suppress this warning
[Test worker] INFO  - Test Suite Started: Validar endpoint de listado de usuarios
]]></system-err>
</testsuite>
