{"name":"consultar lista de usuarios como \u003cnombreEscenario\u003e correctmante","id":"validar-endpoint-del-login;consultar-lista-de-usuarios-como-\u003cnombreescenario\u003e-correctmante","testSteps":[{"number":1,"description":"Example: {nombreEscenario\u003dusuario administrador, email\u003dadmin@wolox.com.ar, password\u003dcandidatoWolox2020}","duration":3151,"startTime":"2021-04-02T02:16:54.609-05:00[America/Bogota]","result":"SUCCESS","precondition":false,"level":0,"lineNumber":18,"children":[{"number":2,"description":"Dado que el Analista establece la url base","duration":30,"startTime":"2021-04-02T02:16:54.639-05:00[America/Bogota]","result":"SUCCESS","precondition":false,"level":1},{"number":3,"description":"Cuando se consulta la lista con las credenciales\r\n| email | admin@wolox.com.ar |\r\n| password | candidatoWolox2020 |","duration":3005,"startTime":"2021-04-02T02:16:54.672-05:00[America/Bogota]","result":"SUCCESS","precondition":false,"level":1,"children":[{"number":4,"description":"Analista logueo","duration":2305,"startTime":"2021-04-02T02:16:54.886-05:00[America/Bogota]","result":"SUCCESS","precondition":false,"level":2,"children":[{"number":5,"description":"Analista executes a POST on the resource /users/sessions","duration":2258,"startTime":"2021-04-02T02:16:54.931-05:00[America/Bogota]","result":"SUCCESS","precondition":false,"level":3,"children":[{"number":6,"description":"POST https://nodejs-qa-training.herokuapp.com/users/sessions\r","duration":0,"startTime":"2021-04-02T02:16:57.189-05:00[America/Bogota]","result":"SUCCESS","restQuery":{"method":"POST","path":"https://nodejs-qa-training.herokuapp.com/users/sessions\r","content":"{\n    \"email\": \"admin@wolox.com.ar\",\n    \"password\": \"candidatoWolox2020\"\n}\r","contentType":"application/json","requestHeaders":"Accept\u003d*/*\r\n\t\t\t\tContent-Type\u003dapplication/json; charset\u003dUTF-8\r","requestCookies":"\r","responseHeaders":"Server: Cowboy\r\nConnection: keep-alive\r\nX-Powered-By: Express\r\nAuthorization: eyJ0eXAiOiJKV1QiLCJhbGciOiJIUzI1NiJ9.eyJ1c2VySWQiOjE0Niwicm9sZSI6ImFkbWluIiwiaWF0IjoxNjE3MzQ3ODE3LjA5MiwiZXhwIjoxNjE3MzQ5NjE3LjA5Mn0.vzlI300H-gRuM2G6lO25Pq3Bb3fsGSdwLbv-CV13z-I\r\nContent-Type: application/json; charset\u003dutf-8\r\nContent-Length: 51\r\nEtag: W/\"33-8KFJIplq7N9zpqu/kQ0A/enkpC4\"\r\nDate: Fri, 02 Apr 2021 07:16:57 GMT\r\nVia: 1.1 vegur\r","responseCookies":"\r","responseBody":"{\n    \"user_id\": 146,\n    \"token_expires_at\": \"1617349617.092\"\n}","statusCode":200},"precondition":false,"level":4}]}]},{"number":7,"description":"Analista lista usuario","duration":481,"startTime":"2021-04-02T02:16:57.196-05:00[America/Bogota]","result":"SUCCESS","precondition":false,"level":2,"children":[{"number":8,"description":"Analista executes a GET on the resource /users","duration":470,"startTime":"2021-04-02T02:16:57.206-05:00[America/Bogota]","result":"SUCCESS","precondition":false,"level":3,"children":[{"number":9,"description":"GET https://nodejs-qa-training.herokuapp.com/users\r","duration":0,"startTime":"2021-04-02T02:16:57.676-05:00[America/Bogota]","result":"SUCCESS","restQuery":{"method":"GET","path":"https://nodejs-qa-training.herokuapp.com/users\r","content":"\r","contentType":"application/json","requestHeaders":"Authorization\u003deyJ0eXAiOiJKV1QiLCJhbGciOiJIUzI1NiJ9.eyJ1c2VySWQiOjE0Niwicm9sZSI6ImFkbWluIiwiaWF0IjoxNjE3MzQ3ODE3LjA5MiwiZXhwIjoxNjE3MzQ5NjE3LjA5Mn0.vzlI300H-gRuM2G6lO25Pq3Bb3fsGSdwLbv-CV13z-I\r\n\t\t\t\tAccept\u003d*/*\r\n\t\t\t\tContent-Type\u003dapplication/json; charset\u003dUTF-8\r","requestCookies":"\r","responseHeaders":"Server: Cowboy\r\nConnection: keep-alive\r\nX-Powered-By: Express\r\nContent-Type: application/json; charset\u003dutf-8\r\nContent-Length: 1074\r\nEtag: W/\"432-9GnOuYAAD3TaaZ0z8iv/fBjeCow\"\r\nDate: Fri, 02 Apr 2021 07:16:57 GMT\r\nVia: 1.1 vegur\r","responseCookies":"\r","responseBody":"{\n    \"total_count\": 271,\n    \"count\": 10,\n    \"total_pages\": 28,\n    \"limit\": 10,\n    \"offset\": 0,\n    \"current_page\": 1,\n    \"page\": [\n        {\n            \"first_name\": \"Hernan\",\n            \"last_name\": \"Garcia98\",\n            \"email\": \"hernan003@wolox.com.ar\",\n            \"role\": \"regular\"\n        },\n        {\n            \"first_name\": \"Hernan\",\n            \"last_name\": \"Garcia\",\n            \"email\": \"hernan000@wolox.com.ar\",\n            \"role\": \"regular\"\n        },\n        {\n            \"first_name\": \"Ricardo\",\n            \"last_name\": \"Pantoja\",\n            \"email\": \"emilia.nava@wolox.com.ar\",\n            \"role\": \"regular\"\n        },\n        {\n            \"first_name\": \"Hernan\",\n            \"last_name\": \"Garcia\",\n            \"email\": \"h6@wolox.com.ar\",\n            \"role\": \"regular\"\n        },\n        {\n            \"first_name\": \"5\",\n            \"last_name\": \"4\",\n            \"email\": \"alfredo.cedillo@wolox.com.ar\",\n            \"role\": \"regular\"\n        },\n        {\n            \"first_name\": \"Tomás\",\n            \"last_name\": \"Griego\",\n            \"email\": \"mayte.aguilera@wolox.com.ar\",\n            \"role\": \"regular\"\n        },\n        {\n            \"first_name\": \"Jose Antonio\",\n            \"last_name\": \"Bermudez\",\n            \"email\": \"jose.beruda@wolox.com.ar\",\n            \"role\": \"regular\"\n        },\n        {\n            \"first_name\": \"Juan\",\n            \"last_name\": \"Perez\",\n            \"email\": \"jperez@wolox.com.ar\",\n            \"role\": \"regular\"\n        },\n        {\n            \"first_name\": \"Hernan\",\n            \"last_name\": \"Garcia\",\n            \"email\": \"h7@wolox.com.ar\",\n            \"role\": \"regular\"\n        },\n        {\n            \"first_name\": \"1\",\n            \"last_name\": \"4\",\n            \"email\": \"miguel.contreras@wolox.com.ar\",\n            \"role\": \"regular\"\n        }\n    ],\n    \"previous_page\": null,\n    \"next_page\": 2\n}","statusCode":200},"precondition":false,"level":4}]}]}]},{"number":10,"description":"Entonces el servicio debe retornar un codigo valido","duration":79,"startTime":"2021-04-02T02:16:57.678-05:00[America/Bogota]","result":"SUCCESS","precondition":false,"level":1,"children":[{"number":11,"description":"A valid response is returned","duration":20,"startTime":"2021-04-02T02:16:57.736-05:00[America/Bogota]","result":"SUCCESS","precondition":false,"level":2}]}]},{"number":12,"description":"Example: {nombreEscenario\u003dusuario regular, email\u003dregular@wolox.com.ar, password\u003dcandidatoWolox2020}","duration":982,"startTime":"2021-04-02T02:16:57.765-05:00[America/Bogota]","result":"SUCCESS","precondition":false,"level":0,"lineNumber":19,"children":[{"number":13,"description":"Dado que el Analista establece la url base","duration":3,"startTime":"2021-04-02T02:16:57.767-05:00[America/Bogota]","result":"SUCCESS","precondition":false,"level":1},{"number":14,"description":"Cuando se consulta la lista con las credenciales\r\n| email | regular@wolox.com.ar |\r\n| password | candidatoWolox2020 |","duration":973,"startTime":"2021-04-02T02:16:57.771-05:00[America/Bogota]","result":"SUCCESS","precondition":false,"level":1,"children":[{"number":15,"description":"Analista logueo","duration":538,"startTime":"2021-04-02T02:16:57.774-05:00[America/Bogota]","result":"SUCCESS","precondition":false,"level":2,"children":[{"number":16,"description":"Analista executes a POST on the resource /users/sessions","duration":537,"startTime":"2021-04-02T02:16:57.775-05:00[America/Bogota]","result":"SUCCESS","precondition":false,"level":3,"children":[{"number":17,"description":"POST https://nodejs-qa-training.herokuapp.com/users/sessions\r","duration":0,"startTime":"2021-04-02T02:16:58.311-05:00[America/Bogota]","result":"SUCCESS","restQuery":{"method":"POST","path":"https://nodejs-qa-training.herokuapp.com/users/sessions\r","content":"{\n    \"email\": \"regular@wolox.com.ar\",\n    \"password\": \"candidatoWolox2020\"\n}\r","contentType":"application/json","requestHeaders":"Accept\u003d*/*\r\n\t\t\t\tContent-Type\u003dapplication/json; charset\u003dUTF-8\r","requestCookies":"\r","responseHeaders":"Server: Cowboy\r\nConnection: keep-alive\r\nX-Powered-By: Express\r\nAuthorization: eyJ0eXAiOiJKV1QiLCJhbGciOiJIUzI1NiJ9.eyJ1c2VySWQiOjE0Nywicm9sZSI6InJlZ3VsYXIiLCJpYXQiOjE2MTczNDc4MTguMjQ4LCJleHAiOjE2MTczNDk2MTguMjQ4fQ.KPdq6kbghKBGdpCHN-JAXGq99r9IvByjAJkNqDlVfwY\r\nContent-Type: application/json; charset\u003dutf-8\r\nContent-Length: 51\r\nEtag: W/\"33-rOVAQJkRifoifKg/KAPaX3yPMkM\"\r\nDate: Fri, 02 Apr 2021 07:16:58 GMT\r\nVia: 1.1 vegur\r","responseCookies":"\r","responseBody":"{\n    \"user_id\": 147,\n    \"token_expires_at\": \"1617349618.248\"\n}","statusCode":200},"precondition":false,"level":4}]}]},{"number":18,"description":"Analista lista usuario","duration":430,"startTime":"2021-04-02T02:16:58.313-05:00[America/Bogota]","result":"SUCCESS","precondition":false,"level":2,"children":[{"number":19,"description":"Analista executes a GET on the resource /users","duration":427,"startTime":"2021-04-02T02:16:58.315-05:00[America/Bogota]","result":"SUCCESS","precondition":false,"level":3,"children":[{"number":20,"description":"GET https://nodejs-qa-training.herokuapp.com/users\r","duration":0,"startTime":"2021-04-02T02:16:58.742-05:00[America/Bogota]","result":"SUCCESS","restQuery":{"method":"GET","path":"https://nodejs-qa-training.herokuapp.com/users\r","content":"\r","contentType":"application/json","requestHeaders":"Authorization\u003deyJ0eXAiOiJKV1QiLCJhbGciOiJIUzI1NiJ9.eyJ1c2VySWQiOjE0Nywicm9sZSI6InJlZ3VsYXIiLCJpYXQiOjE2MTczNDc4MTguMjQ4LCJleHAiOjE2MTczNDk2MTguMjQ4fQ.KPdq6kbghKBGdpCHN-JAXGq99r9IvByjAJkNqDlVfwY\r\n\t\t\t\tAccept\u003d*/*\r\n\t\t\t\tContent-Type\u003dapplication/json; charset\u003dUTF-8\r","requestCookies":"\r","responseHeaders":"Server: Cowboy\r\nConnection: keep-alive\r\nX-Powered-By: Express\r\nContent-Type: application/json; charset\u003dutf-8\r\nContent-Length: 1074\r\nEtag: W/\"432-w12DE1zpj8ymRIh0djYCIuCjRDk\"\r\nDate: Fri, 02 Apr 2021 07:16:58 GMT\r\nVia: 1.1 vegur\r","responseCookies":"\r","responseBody":"{\n    \"total_count\": 270,\n    \"count\": 10,\n    \"total_pages\": 27,\n    \"limit\": 10,\n    \"offset\": 0,\n    \"current_page\": 1,\n    \"page\": [\n        {\n            \"first_name\": \"Hernan\",\n            \"last_name\": \"Garcia98\",\n            \"email\": \"hernan003@wolox.com.ar\",\n            \"role\": \"regular\"\n        },\n        {\n            \"first_name\": \"Hernan\",\n            \"last_name\": \"Garcia\",\n            \"email\": \"hernan000@wolox.com.ar\",\n            \"role\": \"regular\"\n        },\n        {\n            \"first_name\": \"Ricardo\",\n            \"last_name\": \"Pantoja\",\n            \"email\": \"emilia.nava@wolox.com.ar\",\n            \"role\": \"regular\"\n        },\n        {\n            \"first_name\": \"Hernan\",\n            \"last_name\": \"Garcia\",\n            \"email\": \"h6@wolox.com.ar\",\n            \"role\": \"regular\"\n        },\n        {\n            \"first_name\": \"5\",\n            \"last_name\": \"4\",\n            \"email\": \"alfredo.cedillo@wolox.com.ar\",\n            \"role\": \"regular\"\n        },\n        {\n            \"first_name\": \"Tomás\",\n            \"last_name\": \"Griego\",\n            \"email\": \"mayte.aguilera@wolox.com.ar\",\n            \"role\": \"regular\"\n        },\n        {\n            \"first_name\": \"Jose Antonio\",\n            \"last_name\": \"Bermudez\",\n            \"email\": \"jose.beruda@wolox.com.ar\",\n            \"role\": \"regular\"\n        },\n        {\n            \"first_name\": \"Juan\",\n            \"last_name\": \"Perez\",\n            \"email\": \"jperez@wolox.com.ar\",\n            \"role\": \"regular\"\n        },\n        {\n            \"first_name\": \"Hernan\",\n            \"last_name\": \"Garcia\",\n            \"email\": \"h7@wolox.com.ar\",\n            \"role\": \"regular\"\n        },\n        {\n            \"first_name\": \"1\",\n            \"last_name\": \"4\",\n            \"email\": \"miguel.contreras@wolox.com.ar\",\n            \"role\": \"regular\"\n        }\n    ],\n    \"previous_page\": null,\n    \"next_page\": 2\n}","statusCode":200},"precondition":false,"level":4}]}]}]},{"number":21,"description":"Entonces el servicio debe retornar un codigo valido","duration":2,"startTime":"2021-04-02T02:16:58.745-05:00[America/Bogota]","result":"SUCCESS","precondition":false,"level":1,"children":[{"number":22,"description":"A valid response is returned","duration":0,"startTime":"2021-04-02T02:16:58.746-05:00[America/Bogota]","result":"SUCCESS","precondition":false,"level":2}]}]}],"userStory":{"id":"validar-endpoint-del-login","storyName":"Validar endpoint del login","path":"file:///D:/wolox/src/test/resources/com/prueba/features/listadoUsuario.feature","narrative":"  Yo como analista de automatizacion\n  Quiero realizar la mayor cantidad de pruebas al endpoint de listado de usurios\n  Para tener la mayor cobertura en pruebas posible","type":"feature"},"featureTag":{"name":"Features/Validar endpoint del login","type":"feature","displayName":"Features/Validar endpoint del login"},"title":"consultar lista de usuarios como \u003cnombreEscenario\u003e correctmante","startTime":"2021-04-02T02:16:54.552-05:00[America/Bogota]","duration":4196,"projectKey":"","isManualTestingUpToDate":false,"dataTable":{"headers":["nombreEscenario","email","password"],"rows":[{"values":["usuario administrador","admin@wolox.com.ar","candidatoWolox2020"],"lineNumber":18,"result":"SUCCESS"},{"values":["usuario regular","regular@wolox.com.ar","candidatoWolox2020"],"lineNumber":19,"result":"SUCCESS"}],"predefinedRows":true,"scenarioOutline":"Dado que el Analista establece la url base\n\rCuando se consulta la lista con las credenciales\n\rEntonces el servicio debe retornar un codigo valido\n\r","dataSetDescriptors":[{"startRow":0,"rowCount":0,"name":""}]},"manual":false,"testSource":"Cucumber","actors":[{"name":"Analista","can":["browse the web","call an API at https://nodejs-qa-training.herokuapp.com"]}],"result":"SUCCESS","scenarioOutline":"Dado que el Analista establece la url base\r\nCuando se consulta la lista con las credenciales\r\n|email | \u003cemail\u003e|\r\n|password | \u003cpassword\u003e|\r\nEntonces el servicio debe retornar un codigo valido"}