{"name":"consultar lista de usuarios como \u003cnombreEscenario\u003e correctmante","id":"validar-endpoint-de-listado-de-usuarios;consultar-lista-de-usuarios-como-\u003cnombreescenario\u003e-correctmante","testSteps":[{"number":1,"description":"Example: {nombreEscenario\u003dusuario administrador, email\u003dadmin@wolox.com.ar, password\u003dcandidatoWolox2020}","duration":3783,"startTime":"2021-04-03T00:09:51.531-05:00[America/Bogota]","result":"SUCCESS","precondition":false,"level":0,"lineNumber":18,"children":[{"number":2,"description":"Dado que el Analista establece la url base","duration":37,"startTime":"2021-04-03T00:09:51.570-05:00[America/Bogota]","result":"SUCCESS","precondition":false,"level":1},{"number":3,"description":"Cuando se consulta la lista con las credenciales\r\n| email | admin@wolox.com.ar |\r\n| password | candidatoWolox2020 |","duration":3603,"startTime":"2021-04-03T00:09:51.610-05:00[America/Bogota]","result":"SUCCESS","precondition":false,"level":1,"children":[{"number":4,"description":"Analista logueo","duration":2829,"startTime":"2021-04-03T00:09:51.820-05:00[America/Bogota]","result":"SUCCESS","precondition":false,"level":2,"children":[{"number":5,"description":"Analista executes a POST on the resource /users/sessions","duration":2779,"startTime":"2021-04-03T00:09:51.868-05:00[America/Bogota]","result":"SUCCESS","precondition":false,"level":3,"children":[{"number":6,"description":"POST https://nodejs-qa-training.herokuapp.com/users/sessions\r","duration":0,"startTime":"2021-04-03T00:09:54.647-05:00[America/Bogota]","result":"SUCCESS","restQuery":{"method":"POST","path":"https://nodejs-qa-training.herokuapp.com/users/sessions\r","content":"{\n    \"email\": \"admin@wolox.com.ar\",\n    \"password\": \"candidatoWolox2020\"\n}\r","contentType":"application/json","requestHeaders":"Accept\u003d*/*\r\n\t\t\t\tContent-Type\u003dapplication/json; charset\u003dUTF-8\r","requestCookies":"\r","responseHeaders":"Server: Cowboy\r\nConnection: keep-alive\r\nX-Powered-By: Express\r\nAuthorization: eyJ0eXAiOiJKV1QiLCJhbGciOiJIUzI1NiJ9.eyJ1c2VySWQiOjE0Niwicm9sZSI6ImFkbWluIiwiaWF0IjoxNjE3NDI2NTkzLjY0LCJleHAiOjE2MTc0MjgzOTMuNjR9.-Z_an7CpLmkMguRkGVGpJlYfjr738_ma3ZB7dB6Ks8Q\r\nContent-Type: application/json; charset\u003dutf-8\r\nContent-Length: 50\r\nEtag: W/\"32-As1zHEYHhmUUzgOqe7N814mu2AY\"\r\nDate: Sat, 03 Apr 2021 05:09:53 GMT\r\nVia: 1.1 vegur\r","responseCookies":"\r","responseBody":"{\n    \"user_id\": 146,\n    \"token_expires_at\": \"1617428393.64\"\n}","statusCode":200},"precondition":false,"level":4}]}]},{"number":7,"description":"Analista lista usuario","duration":558,"startTime":"2021-04-03T00:09:54.654-05:00[America/Bogota]","result":"SUCCESS","precondition":false,"level":2,"children":[{"number":8,"description":"Analista executes a GET on the resource /users","duration":550,"startTime":"2021-04-03T00:09:54.662-05:00[America/Bogota]","result":"SUCCESS","precondition":false,"level":3,"children":[{"number":9,"description":"GET https://nodejs-qa-training.herokuapp.com/users?page\u003d1\r","duration":1,"startTime":"2021-04-03T00:09:55.211-05:00[America/Bogota]","result":"SUCCESS","restQuery":{"method":"GET","path":"https://nodejs-qa-training.herokuapp.com/users?page\u003d1\r","content":"\r","contentType":"application/json","requestHeaders":"Authorization\u003deyJ0eXAiOiJKV1QiLCJhbGciOiJIUzI1NiJ9.eyJ1c2VySWQiOjE0Niwicm9sZSI6ImFkbWluIiwiaWF0IjoxNjE3NDI2NTkzLjY0LCJleHAiOjE2MTc0MjgzOTMuNjR9.-Z_an7CpLmkMguRkGVGpJlYfjr738_ma3ZB7dB6Ks8Q\r\n\t\t\t\tAccept\u003d*/*\r\n\t\t\t\tContent-Type\u003dapplication/json; charset\u003dUTF-8\r","requestCookies":"\r","responseHeaders":"Server: Cowboy\r\nConnection: keep-alive\r\nX-Powered-By: Express\r\nContent-Type: application/json; charset\u003dutf-8\r\nContent-Length: 1074\r\nEtag: W/\"432-zbvmW7iSGHoT8eD4GqV3xJ27fcY\"\r\nDate: Sat, 03 Apr 2021 05:09:54 GMT\r\nVia: 1.1 vegur\r","responseCookies":"\r","responseBody":"{\n    \"total_count\": 273,\n    \"count\": 10,\n    \"total_pages\": 28,\n    \"limit\": 10,\n    \"offset\": 0,\n    \"current_page\": 1,\n    \"page\": [\n        {\n            \"first_name\": \"Hernan\",\n            \"last_name\": \"Garcia98\",\n            \"email\": \"hernan003@wolox.com.ar\",\n            \"role\": \"regular\"\n        },\n        {\n            \"first_name\": \"Hernan\",\n            \"last_name\": \"Garcia\",\n            \"email\": \"hernan000@wolox.com.ar\",\n            \"role\": \"regular\"\n        },\n        {\n            \"first_name\": \"Ricardo\",\n            \"last_name\": \"Pantoja\",\n            \"email\": \"emilia.nava@wolox.com.ar\",\n            \"role\": \"regular\"\n        },\n        {\n            \"first_name\": \"Hernan\",\n            \"last_name\": \"Garcia\",\n            \"email\": \"h6@wolox.com.ar\",\n            \"role\": \"regular\"\n        },\n        {\n            \"first_name\": \"5\",\n            \"last_name\": \"4\",\n            \"email\": \"alfredo.cedillo@wolox.com.ar\",\n            \"role\": \"regular\"\n        },\n        {\n            \"first_name\": \"Tomás\",\n            \"last_name\": \"Griego\",\n            \"email\": \"mayte.aguilera@wolox.com.ar\",\n            \"role\": \"regular\"\n        },\n        {\n            \"first_name\": \"Jose Antonio\",\n            \"last_name\": \"Bermudez\",\n            \"email\": \"jose.beruda@wolox.com.ar\",\n            \"role\": \"regular\"\n        },\n        {\n            \"first_name\": \"Juan\",\n            \"last_name\": \"Perez\",\n            \"email\": \"jperez@wolox.com.ar\",\n            \"role\": \"regular\"\n        },\n        {\n            \"first_name\": \"Hernan\",\n            \"last_name\": \"Garcia\",\n            \"email\": \"h7@wolox.com.ar\",\n            \"role\": \"regular\"\n        },\n        {\n            \"first_name\": \"1\",\n            \"last_name\": \"4\",\n            \"email\": \"miguel.contreras@wolox.com.ar\",\n            \"role\": \"regular\"\n        }\n    ],\n    \"previous_page\": null,\n    \"next_page\": 2\n}","statusCode":200},"precondition":false,"level":4}]}]}]},{"number":10,"description":"Entonces el servicio debe retornar un codigo valido","duration":98,"startTime":"2021-04-03T00:09:55.214-05:00[America/Bogota]","result":"SUCCESS","precondition":false,"level":1,"children":[{"number":11,"description":"A valid response is returned","duration":22,"startTime":"2021-04-03T00:09:55.289-05:00[America/Bogota]","result":"SUCCESS","precondition":false,"level":2}]}]},{"number":12,"description":"Example: {nombreEscenario\u003dusuario regular, email\u003dregular@wolox.com.ar, password\u003dcandidatoWolox2020}","duration":1908,"startTime":"2021-04-03T00:09:55.321-05:00[America/Bogota]","result":"SUCCESS","precondition":false,"level":0,"lineNumber":19,"children":[{"number":13,"description":"Dado que el Analista establece la url base","duration":2,"startTime":"2021-04-03T00:09:55.323-05:00[America/Bogota]","result":"SUCCESS","precondition":false,"level":1},{"number":14,"description":"Cuando se consulta la lista con las credenciales\r\n| email | regular@wolox.com.ar |\r\n| password | candidatoWolox2020 |","duration":1899,"startTime":"2021-04-03T00:09:55.326-05:00[America/Bogota]","result":"SUCCESS","precondition":false,"level":1,"children":[{"number":15,"description":"Analista logueo","duration":1320,"startTime":"2021-04-03T00:09:55.329-05:00[America/Bogota]","result":"SUCCESS","precondition":false,"level":2,"children":[{"number":16,"description":"Analista executes a POST on the resource /users/sessions","duration":1317,"startTime":"2021-04-03T00:09:55.331-05:00[America/Bogota]","result":"SUCCESS","precondition":false,"level":3,"children":[{"number":17,"description":"POST https://nodejs-qa-training.herokuapp.com/users/sessions\r","duration":0,"startTime":"2021-04-03T00:09:56.648-05:00[America/Bogota]","result":"SUCCESS","restQuery":{"method":"POST","path":"https://nodejs-qa-training.herokuapp.com/users/sessions\r","content":"{\n    \"email\": \"regular@wolox.com.ar\",\n    \"password\": \"candidatoWolox2020\"\n}\r","contentType":"application/json","requestHeaders":"Accept\u003d*/*\r\n\t\t\t\tContent-Type\u003dapplication/json; charset\u003dUTF-8\r","requestCookies":"\r","responseHeaders":"Server: Cowboy\r\nConnection: keep-alive\r\nX-Powered-By: Express\r\nAuthorization: eyJ0eXAiOiJKV1QiLCJhbGciOiJIUzI1NiJ9.eyJ1c2VySWQiOjE0Nywicm9sZSI6InJlZ3VsYXIiLCJpYXQiOjE2MTc0MjY1OTUuNjkzLCJleHAiOjE2MTc0MjgzOTUuNjkzfQ.nsoRYOd2rgF86sYV1BKTMBpziSTU6WnqNLaA3JMGoCQ\r\nContent-Type: application/json; charset\u003dutf-8\r\nContent-Length: 51\r\nEtag: W/\"33-P0b3T9AtinjMR18BzOsx8BNUaGI\"\r\nDate: Sat, 03 Apr 2021 05:09:55 GMT\r\nVia: 1.1 vegur\r","responseCookies":"\r","responseBody":"{\n    \"user_id\": 147,\n    \"token_expires_at\": \"1617428395.693\"\n}","statusCode":200},"precondition":false,"level":4}]}]},{"number":18,"description":"Analista lista usuario","duration":574,"startTime":"2021-04-03T00:09:56.650-05:00[America/Bogota]","result":"SUCCESS","precondition":false,"level":2,"children":[{"number":19,"description":"Analista executes a GET on the resource /users","duration":572,"startTime":"2021-04-03T00:09:56.652-05:00[America/Bogota]","result":"SUCCESS","precondition":false,"level":3,"children":[{"number":20,"description":"GET https://nodejs-qa-training.herokuapp.com/users?page\u003d1\r","duration":0,"startTime":"2021-04-03T00:09:57.224-05:00[America/Bogota]","result":"SUCCESS","restQuery":{"method":"GET","path":"https://nodejs-qa-training.herokuapp.com/users?page\u003d1\r","content":"\r","contentType":"application/json","requestHeaders":"Authorization\u003deyJ0eXAiOiJKV1QiLCJhbGciOiJIUzI1NiJ9.eyJ1c2VySWQiOjE0Nywicm9sZSI6InJlZ3VsYXIiLCJpYXQiOjE2MTc0MjY1OTUuNjkzLCJleHAiOjE2MTc0MjgzOTUuNjkzfQ.nsoRYOd2rgF86sYV1BKTMBpziSTU6WnqNLaA3JMGoCQ\r\n\t\t\t\tAccept\u003d*/*\r\n\t\t\t\tContent-Type\u003dapplication/json; charset\u003dUTF-8\r","requestCookies":"\r","responseHeaders":"Server: Cowboy\r\nConnection: keep-alive\r\nX-Powered-By: Express\r\nContent-Type: application/json; charset\u003dutf-8\r\nContent-Length: 1074\r\nEtag: W/\"432-Oup/N0rRr8NrpkkK4d099LwnqUM\"\r\nDate: Sat, 03 Apr 2021 05:09:56 GMT\r\nVia: 1.1 vegur\r","responseCookies":"\r","responseBody":"{\n    \"total_count\": 272,\n    \"count\": 10,\n    \"total_pages\": 28,\n    \"limit\": 10,\n    \"offset\": 0,\n    \"current_page\": 1,\n    \"page\": [\n        {\n            \"first_name\": \"Hernan\",\n            \"last_name\": \"Garcia98\",\n            \"email\": \"hernan003@wolox.com.ar\",\n            \"role\": \"regular\"\n        },\n        {\n            \"first_name\": \"Hernan\",\n            \"last_name\": \"Garcia\",\n            \"email\": \"hernan000@wolox.com.ar\",\n            \"role\": \"regular\"\n        },\n        {\n            \"first_name\": \"Ricardo\",\n            \"last_name\": \"Pantoja\",\n            \"email\": \"emilia.nava@wolox.com.ar\",\n            \"role\": \"regular\"\n        },\n        {\n            \"first_name\": \"Hernan\",\n            \"last_name\": \"Garcia\",\n            \"email\": \"h6@wolox.com.ar\",\n            \"role\": \"regular\"\n        },\n        {\n            \"first_name\": \"5\",\n            \"last_name\": \"4\",\n            \"email\": \"alfredo.cedillo@wolox.com.ar\",\n            \"role\": \"regular\"\n        },\n        {\n            \"first_name\": \"Tomás\",\n            \"last_name\": \"Griego\",\n            \"email\": \"mayte.aguilera@wolox.com.ar\",\n            \"role\": \"regular\"\n        },\n        {\n            \"first_name\": \"Jose Antonio\",\n            \"last_name\": \"Bermudez\",\n            \"email\": \"jose.beruda@wolox.com.ar\",\n            \"role\": \"regular\"\n        },\n        {\n            \"first_name\": \"Juan\",\n            \"last_name\": \"Perez\",\n            \"email\": \"jperez@wolox.com.ar\",\n            \"role\": \"regular\"\n        },\n        {\n            \"first_name\": \"Hernan\",\n            \"last_name\": \"Garcia\",\n            \"email\": \"h7@wolox.com.ar\",\n            \"role\": \"regular\"\n        },\n        {\n            \"first_name\": \"1\",\n            \"last_name\": \"4\",\n            \"email\": \"miguel.contreras@wolox.com.ar\",\n            \"role\": \"regular\"\n        }\n    ],\n    \"previous_page\": null,\n    \"next_page\": 2\n}","statusCode":200},"precondition":false,"level":4}]}]}]},{"number":21,"description":"Entonces el servicio debe retornar un codigo valido","duration":2,"startTime":"2021-04-03T00:09:57.226-05:00[America/Bogota]","result":"SUCCESS","precondition":false,"level":1,"children":[{"number":22,"description":"A valid response is returned","duration":1,"startTime":"2021-04-03T00:09:57.227-05:00[America/Bogota]","result":"SUCCESS","precondition":false,"level":2}]}]}],"userStory":{"id":"validar-endpoint-de-listado-de-usuarios","storyName":"Validar endpoint de listado de usuarios","path":"file:///D:/wolox/src/test/resources/com/prueba/features/listadoUsuario.feature","narrative":"  Yo como analista de automatizacion\n  Quiero realizar la mayor cantidad de pruebas al endpoint de listado de usurios\n  Para tener la mayor cobertura en pruebas posible","type":"feature"},"featureTag":{"name":"Features/Validar endpoint de listado de usuarios","type":"feature","displayName":"Features/Validar endpoint de listado de usuarios"},"title":"consultar lista de usuarios como \u003cnombreEscenario\u003e correctmante","startTime":"2021-04-03T00:09:51.437-05:00[America/Bogota]","duration":5793,"projectKey":"","isManualTestingUpToDate":false,"dataTable":{"headers":["nombreEscenario","email","password"],"rows":[{"values":["usuario administrador","admin@wolox.com.ar","candidatoWolox2020"],"lineNumber":18,"result":"SUCCESS"},{"values":["usuario regular","regular@wolox.com.ar","candidatoWolox2020"],"lineNumber":19,"result":"SUCCESS"}],"predefinedRows":true,"scenarioOutline":"Dado que el Analista establece la url base\n\rCuando se consulta la lista con las credenciales\n\rEntonces el servicio debe retornar un codigo valido\n\r","dataSetDescriptors":[{"startRow":0,"rowCount":0,"name":""}]},"manual":false,"testSource":"Cucumber","actors":[{"name":"Analista","can":["browse the web","call an API at https://nodejs-qa-training.herokuapp.com"]}],"result":"SUCCESS","scenarioOutline":"Dado que el Analista establece la url base\r\nCuando se consulta la lista con las credenciales\r\n|email | \u003cemail\u003e|\r\n|password | \u003cpassword\u003e|\r\nEntonces el servicio debe retornar un codigo valido"}