<?xml version="1.0" encoding="UTF-8"?><testsuite errors="0" failures="2" name="Validar endpoint de listado de usuarios" skipped="0" tests="6" time="27.23" timestamp="2021-04-03 05:48:36"><testcase name="consultar lista de usuarios como &lt;nombreEscenario&gt; correctmante"/><testcase name="validar el esquema de la respuesta del servicio"><failure message="1 expectation failed.&#10;Response body doesn't match expectation.&#10;Expected: The content to match the given JSON schema.&#10;warning: the following keywords are unknown and will be ignored: [$id, examples]&#10;    level: &quot;warning&quot;&#10;    schema: {&quot;loadingURI&quot;:&quot;file:/D:/wolox/build/resources/test/listadoUsuarioSchema.json#&quot;,&quot;pointer&quot;:&quot;&quot;}&#10;    domain: &quot;syntax&quot;&#10;    ignored: [&quot;$id&quot;,&quot;examples&quot;]&#10;warning: the following keywords are unknown and will be ignored: [$id, examples]&#10;    level: &quot;warning&quot;&#10;    schema: {&quot;loadingURI&quot;:&quot;file:/D:/wolox/build/resources/test/listadoUsuarioSchema.json#&quot;,&quot;pointer&quot;:&quot;/properties/count&quot;}&#10;    domain: &quot;syntax&quot;&#10;    ignored: [&quot;$id&quot;,&quot;examples&quot;]&#10;warning: the following keywords are unknown and will be ignored: [$id, examples]&#10;    level: &quot;warning&quot;&#10;    schema: {&quot;loadingURI&quot;:&quot;file:/D:/wolox/build/resources/test/listadoUsuarioSchema.json#&quot;,&quot;pointer&quot;:&quot;/properties/current_page&quot;}&#10;    domain: &quot;syntax&quot;&#10;    ignored: [&quot;$id&quot;,&quot;examples&quot;]&#10;warning: the following keywords are unknown and will be ignored: [$id, examples]&#10;    level: &quot;warning&quot;&#10;    schema: {&quot;loadingURI&quot;:&quot;file:/D:/wolox/build/resources/test/listadoUsuarioSchema.json#&quot;,&quot;pointer&quot;:&quot;/properties/current_page_link&quot;}&#10;    domain: &quot;syntax&quot;&#10;    ignored: [&quot;$id&quot;,&quot;examples&quot;]&#10;warning: the following keywords are unknown and will be ignored: [$id, examples]&#10;    level: &quot;warning&quot;&#10;    schema: {&quot;loadingURI&quot;:&quot;file:/D:/wolox/build/resources/test/listadoUsuarioSchema.json#&quot;,&quot;pointer&quot;:&quot;/properties/first_page_link&quot;}&#10;    domain: &quot;syntax&quot;&#10;    ignored: [&quot;$id&quot;,&quot;examples&quot;]&#10;warning: the following keywords are unknown and will be ignored: [$id, examples]&#10;    level: &quot;warning&quot;&#10;    schema: {&quot;loadingURI&quot;:&quot;file:/D:/wolox/build/resources/test/listadoUsuarioSchema.json#&quot;,&quot;pointer&quot;:&quot;/properties/last_page_link&quot;}&#10;    domain: &quot;syntax&quot;&#10;    ignored: [&quot;$id&quot;,&quot;examples&quot;]&#10;warning: the following keywords are unknown and will be ignored: [$id, examples]&#10;    level: &quot;warning&quot;&#10;    schema: {&quot;loadingURI&quot;:&quot;file:/D:/wolox/build/resources/test/listadoUsuarioSchema.json#&quot;,&quot;pointer&quot;:&quot;/properties/limit&quot;}&#10;    domain: &quot;syntax&quot;&#10;    ignored: [&quot;$id&quot;,&quot;examples&quot;]&#10;warning: the following keywords are unknown and will be ignored: [$id, examples]&#10;    level: &quot;warning&quot;&#10;    schema: {&quot;loadingURI&quot;:&quot;file:/D:/wolox/build/resources/test/listadoUsuarioSchema.json#&quot;,&quot;pointer&quot;:&quot;/properties/n_page_link&quot;}&#10;    domain: &quot;syntax&quot;&#10;    ignored: [&quot;$id&quot;,&quot;examples&quot;]&#10;warning: the following keywords are unknown and will be ignored: [$id, examples]&#10;    level: &quot;warning&quot;&#10;    schema: {&quot;loadingURI&quot;:&quot;file:/D:/wolox/build/resources/test/listadoUsuarioSchema.json#&quot;,&quot;pointer&quot;:&quot;/properties/next_page&quot;}&#10;    domain: &quot;syntax&quot;&#10;    ignored: [&quot;$id&quot;,&quot;examples&quot;]&#10;warning: the following keywords are unknown and will be ignored: [$id, examples]&#10;    level: &quot;warning&quot;&#10;    schema: {&quot;loadingURI&quot;:&quot;file:/D:/wolox/build/resources/test/listadoUsuarioSchema.json#&quot;,&quot;pointer&quot;:&quot;/properties/next_page_link&quot;}&#10;    domain: &quot;syntax&quot;&#10;    ignored: [&quot;$id&quot;,&quot;examples&quot;]&#10;warning: the following keywords are unknown and will be ignored: [$id, examples]&#10;    level: &quot;warning&quot;&#10;    schema: {&quot;loadingURI&quot;:&quot;file:/D:/wolox/build/resources/test/listadoUsuarioSchema.json#&quot;,&quot;pointer&quot;:&quot;/properties/offset&quot;}&#10;    domain: &quot;syntax&quot;&#10;    ignored: [&quot;$id&quot;,&quot;examples&quot;]&#10;warning: the following keywords are unknown and will be ignored: [$id, examples]&#10;    level: &quot;warning&quot;&#10;    schema: {&quot;loadingURI&quot;:&quot;file:/D:/wolox/build/resources/test/listadoUsuarioSchema.json#&quot;,&quot;pointer&quot;:&quot;/properties/page&quot;}&#10;    domain: &quot;syntax&quot;&#10;    ignored: [&quot;$id&quot;,&quot;examples&quot;]&#10;warning: the following keywords are unknown and will be ignored: [$id]&#10;    level: &quot;warning&quot;&#10;    schema: {&quot;loadingURI&quot;:&quot;file:/D:/wolox/build/resources/test/listadoUsuarioSchema.json#&quot;,&quot;pointer&quot;:&quot;/properties/page/items&quot;}&#10;    domain: &quot;syntax&quot;&#10;    ignored: [&quot;$id&quot;]&#10;warning: the following keywords are unknown and will be ignored: [$id, examples]&#10;    level: &quot;warning&quot;&#10;    schema: {&quot;loadingURI&quot;:&quot;file:/D:/wolox/build/resources/test/listadoUsuarioSchema.json#&quot;,&quot;pointer&quot;:&quot;/properties/page/items/anyOf/0&quot;}&#10;    domain: &quot;syntax&quot;&#10;    ignored: [&quot;$id&quot;,&quot;examples&quot;]&#10;warning: the following keywords are unknown and will be ignored: [$id, examples]&#10;    level: &quot;warning&quot;&#10;    schema: {&quot;loadingURI&quot;:&quot;file:/D:/wolox/build/resources/test/listadoUsuarioSchema.json#&quot;,&quot;pointer&quot;:&quot;/properties/page/items/anyOf/0/properties/email&quot;}&#10;    domain: &quot;syntax&quot;&#10;    ignored: [&quot;$id&quot;,&quot;examples&quot;]&#10;warning: the following keywords are unknown and will be ignored: [$id, examples]&#10;    level: &quot;warning&quot;&#10;    schema: {&quot;loadingURI&quot;:&quot;file:/D:/wolox/build/resources/test/listadoUsuarioSchema.json#&quot;,&quot;pointer&quot;:&quot;/properties/page/items/anyOf/0/properties/first_name&quot;}&#10;    domain: &quot;syntax&quot;&#10;    ignored: [&quot;$id&quot;,&quot;examples&quot;]&#10;warning: the following keywords are unknown and will be ignored: [$id, examples]&#10;    level: &quot;warning&quot;&#10;    schema: {&quot;loadingURI&quot;:&quot;file:/D:/wolox/build/resources/test/listadoUsuarioSchema.json#&quot;,&quot;pointer&quot;:&quot;/properties/page/items/anyOf/0/properties/last_name&quot;}&#10;    domain: &quot;syntax&quot;&#10;    ignored: [&quot;$id&quot;,&quot;examples&quot;]&#10;warning: the following keywords are unknown and will be ignored: [$id, examples]&#10;    level: &quot;warning&quot;&#10;    schema: {&quot;loadingURI&quot;:&quot;file:/D:/wolox/build/resources/test/listadoUsuarioSchema.json#&quot;,&quot;pointer&quot;:&quot;/properties/page/items/anyOf/0/properties/role&quot;}&#10;    domain: &quot;syntax&quot;&#10;    ignored: [&quot;$id&quot;,&quot;examples&quot;]&#10;warning: the following keywords are unknown and will be ignored: [$id, examples]&#10;    level: &quot;warning&quot;&#10;    schema: {&quot;loadingURI&quot;:&quot;file:/D:/wolox/build/resources/test/listadoUsuarioSchema.json#&quot;,&quot;pointer&quot;:&quot;/properties/previous_page&quot;}&#10;    domain: &quot;syntax&quot;&#10;    ignored: [&quot;$id&quot;,&quot;examples&quot;]&#10;warning: the following keywords are unknown and will be ignored: [$id, examples]&#10;    level: &quot;warning&quot;&#10;    schema: {&quot;loadingURI&quot;:&quot;file:/D:/wolox/build/resources/test/listadoUsuarioSchema.json#&quot;,&quot;pointer&quot;:&quot;/properties/previous_page_link&quot;}&#10;    domain: &quot;syntax&quot;&#10;    ignored: [&quot;$id&quot;,&quot;examples&quot;]&#10;warning: the following keywords are unknown and will be ignored: [$id, examples]&#10;    level: &quot;warning&quot;&#10;    schema: {&quot;loadingURI&quot;:&quot;file:/D:/wolox/build/resources/test/listadoUsuarioSchema.json#&quot;,&quot;pointer&quot;:&quot;/properties/total_count&quot;}&#10;    domain: &quot;syntax&quot;&#10;    ignored: [&quot;$id&quot;,&quot;examples&quot;]&#10;warning: the following keywords are unknown and will be ignored: [$id, examples]&#10;    level: &quot;warning&quot;&#10;    schema: {&quot;loadingURI&quot;:&quot;file:/D:/wolox/build/resources/test/listadoUsuarioSchema.json#&quot;,&quot;pointer&quot;:&quot;/properties/total_pages&quot;}&#10;    domain: &quot;syntax&quot;&#10;    ignored: [&quot;$id&quot;,&quot;examples&quot;]&#10;error: object has missing required properties ([&quot;current_page_link&quot;,&quot;first_page_link&quot;,&quot;last_page_link&quot;,&quot;n_page_link&quot;,&quot;next_page_link&quot;,&quot;previous_page_link&quot;])&#10;    level: &quot;error&quot;&#10;    schema: {&quot;loadingURI&quot;:&quot;file:/D:/wolox/build/resources/test/listadoUsuarioSchema.json#&quot;,&quot;pointer&quot;:&quot;&quot;}&#10;    instance: {&quot;pointer&quot;:&quot;&quot;}&#10;    domain: &quot;validation&quot;&#10;    keyword: &quot;required&quot;&#10;    required: [&quot;count&quot;,&quot;current_page&quot;,&quot;current_page_link&quot;,&quot;first_page_link&quot;,&quot;last_page_link&quot;,&quot;limit&quot;,&quot;n_page_link&quot;,&quot;next_page&quot;,&quot;next_page_link&quot;,&quot;offset&quot;,&quot;page&quot;,&quot;previous_page&quot;,&quot;previous_page_link&quot;,&quot;total_count&quot;,&quot;total_pages&quot;]&#10;    missing: [&quot;current_page_link&quot;,&quot;first_page_link&quot;,&quot;last_page_link&quot;,&quot;n_page_link&quot;,&quot;next_page_link&quot;,&quot;previous_page_link&quot;]&#10;&#10;  Actual: {&quot;total_count&quot;:273,&quot;count&quot;:10,&quot;total_pages&quot;:28,&quot;limit&quot;:10,&quot;offset&quot;:0,&quot;current_page&quot;:1,&quot;page&quot;:[{&quot;first_name&quot;:&quot;Hernan&quot;,&quot;last_name&quot;:&quot;Garcia98&quot;,&quot;email&quot;:&quot;hernan003@wolox.com.ar&quot;,&quot;role&quot;:&quot;regular&quot;},{&quot;first_name&quot;:&quot;Hernan&quot;,&quot;last_name&quot;:&quot;Garcia&quot;,&quot;email&quot;:&quot;hernan000@wolox.com.ar&quot;,&quot;role&quot;:&quot;regular&quot;},{&quot;first_name&quot;:&quot;Ricardo&quot;,&quot;last_name&quot;:&quot;Pantoja&quot;,&quot;email&quot;:&quot;emilia.nava@wolox.com.ar&quot;,&quot;role&quot;:&quot;regular&quot;},{&quot;first_name&quot;:&quot;Hernan&quot;,&quot;last_name&quot;:&quot;Garcia&quot;,&quot;email&quot;:&quot;h6@wolox.com.ar&quot;,&quot;role&quot;:&quot;regular&quot;},{&quot;first_name&quot;:&quot;5&quot;,&quot;last_name&quot;:&quot;4&quot;,&quot;email&quot;:&quot;alfredo.cedillo@wolox.com.ar&quot;,&quot;role&quot;:&quot;regular&quot;},{&quot;first_name&quot;:&quot;Tomás&quot;,&quot;last_name&quot;:&quot;Griego&quot;,&quot;email&quot;:&quot;mayte.aguilera@wolox.com.ar&quot;,&quot;role&quot;:&quot;regular&quot;},{&quot;first_name&quot;:&quot;Jose Antonio&quot;,&quot;last_name&quot;:&quot;Bermudez&quot;,&quot;email&quot;:&quot;jose.beruda@wolox.com.ar&quot;,&quot;role&quot;:&quot;regular&quot;},{&quot;first_name&quot;:&quot;Juan&quot;,&quot;last_name&quot;:&quot;Perez&quot;,&quot;email&quot;:&quot;jperez@wolox.com.ar&quot;,&quot;role&quot;:&quot;regular&quot;},{&quot;first_name&quot;:&quot;Hernan&quot;,&quot;last_name&quot;:&quot;Garcia&quot;,&quot;email&quot;:&quot;h7@wolox.com.ar&quot;,&quot;role&quot;:&quot;regular&quot;},{&quot;first_name&quot;:&quot;1&quot;,&quot;last_name&quot;:&quot;4&quot;,&quot;email&quot;:&quot;miguel.contreras@wolox.com.ar&quot;,&quot;role&quot;:&quot;regular&quot;}],&quot;previous_page&quot;:null,&quot;next_page&quot;:2}&#10;" type="java.lang.AssertionError">1 expectation failed.
Response body doesn't match expectation.
Expected: The content to match the given JSON schema.
warning: the following keywords are unknown and will be ignored: [$id, examples]
    level: "warning"
    schema: {"loadingURI":"file:/D:/wolox/build/resources/test/listadoUsuarioSchema.json#","pointer":""}
    domain: "syntax"
    ignored: ["$id","examples"]
warning: the following keywords are unknown and will be ignored: [$id, examples]
    level: "warning"
    schema: {"loadingURI":"file:/D:/wolox/build/resources/test/listadoUsuarioSchema.json#","pointer":"/properties/count"}
    domain: "syntax"
    ignored: ["$id","examples"]
warning: the following keywords are unknown and will be ignored: [$id, examples]
    level: "warning"
    schema: {"loadingURI":"file:/D:/wolox/build/resources/test/listadoUsuarioSchema.json#","pointer":"/properties/current_page"}
    domain: "syntax"
    ignored: ["$id","examples"]
warning: the following keywords are unknown and will be ignored: [$id, examples]
    level: "warning"
    schema: {"loadingURI":"file:/D:/wolox/build/resources/test/listadoUsuarioSchema.json#","pointer":"/properties/current_page_link"}
    domain: "syntax"
    ignored: ["$id","examples"]
warning: the following keywords are unknown and will be ignored: [$id, examples]
    level: "warning"
    schema: {"loadingURI":"file:/D:/wolox/build/resources/test/listadoUsuarioSchema.json#","pointer":"/properties/first_page_link"}
    domain: "syntax"
    ignored: ["$id","examples"]
warning: the following keywords are unknown and will be ignored: [$id, examples]
    level: "warning"
    schema: {"loadingURI":"file:/D:/wolox/build/resources/test/listadoUsuarioSchema.json#","pointer":"/properties/last_page_link"}
    domain: "syntax"
    ignored: ["$id","examples"]
warning: the following keywords are unknown and will be ignored: [$id, examples]
    level: "warning"
    schema: {"loadingURI":"file:/D:/wolox/build/resources/test/listadoUsuarioSchema.json#","pointer":"/properties/limit"}
    domain: "syntax"
    ignored: ["$id","examples"]
warning: the following keywords are unknown and will be ignored: [$id, examples]
    level: "warning"
    schema: {"loadingURI":"file:/D:/wolox/build/resources/test/listadoUsuarioSchema.json#","pointer":"/properties/n_page_link"}
    domain: "syntax"
    ignored: ["$id","examples"]
warning: the following keywords are unknown and will be ignored: [$id, examples]
    level: "warning"
    schema: {"loadingURI":"file:/D:/wolox/build/resources/test/listadoUsuarioSchema.json#","pointer":"/properties/next_page"}
    domain: "syntax"
    ignored: ["$id","examples"]
warning: the following keywords are unknown and will be ignored: [$id, examples]
    level: "warning"
    schema: {"loadingURI":"file:/D:/wolox/build/resources/test/listadoUsuarioSchema.json#","pointer":"/properties/next_page_link"}
    domain: "syntax"
    ignored: ["$id","examples"]
warning: the following keywords are unknown and will be ignored: [$id, examples]
    level: "warning"
    schema: {"loadingURI":"file:/D:/wolox/build/resources/test/listadoUsuarioSchema.json#","pointer":"/properties/offset"}
    domain: "syntax"
    ignored: ["$id","examples"]
warning: the following keywords are unknown and will be ignored: [$id, examples]
    level: "warning"
    schema: {"loadingURI":"file:/D:/wolox/build/resources/test/listadoUsuarioSchema.json#","pointer":"/properties/page"}
    domain: "syntax"
    ignored: ["$id","examples"]
warning: the following keywords are unknown and will be ignored: [$id]
    level: "warning"
    schema: {"loadingURI":"file:/D:/wolox/build/resources/test/listadoUsuarioSchema.json#","pointer":"/properties/page/items"}
    domain: "syntax"
    ignored: ["$id"]
warning: the following keywords are unknown and will be ignored: [$id, examples]
    level: "warning"
    schema: {"loadingURI":"file:/D:/wolox/build/resources/test/listadoUsuarioSchema.json#","pointer":"/properties/page/items/anyOf/0"}
    domain: "syntax"
    ignored: ["$id","examples"]
warning: the following keywords are unknown and will be ignored: [$id, examples]
    level: "warning"
    schema: {"loadingURI":"file:/D:/wolox/build/resources/test/listadoUsuarioSchema.json#","pointer":"/properties/page/items/anyOf/0/properties/email"}
    domain: "syntax"
    ignored: ["$id","examples"]
warning: the following keywords are unknown and will be ignored: [$id, examples]
    level: "warning"
    schema: {"loadingURI":"file:/D:/wolox/build/resources/test/listadoUsuarioSchema.json#","pointer":"/properties/page/items/anyOf/0/properties/first_name"}
    domain: "syntax"
    ignored: ["$id","examples"]
warning: the following keywords are unknown and will be ignored: [$id, examples]
    level: "warning"
    schema: {"loadingURI":"file:/D:/wolox/build/resources/test/listadoUsuarioSchema.json#","pointer":"/properties/page/items/anyOf/0/properties/last_name"}
    domain: "syntax"
    ignored: ["$id","examples"]
warning: the following keywords are unknown and will be ignored: [$id, examples]
    level: "warning"
    schema: {"loadingURI":"file:/D:/wolox/build/resources/test/listadoUsuarioSchema.json#","pointer":"/properties/page/items/anyOf/0/properties/role"}
    domain: "syntax"
    ignored: ["$id","examples"]
warning: the following keywords are unknown and will be ignored: [$id, examples]
    level: "warning"
    schema: {"loadingURI":"file:/D:/wolox/build/resources/test/listadoUsuarioSchema.json#","pointer":"/properties/previous_page"}
    domain: "syntax"
    ignored: ["$id","examples"]
warning: the following keywords are unknown and will be ignored: [$id, examples]
    level: "warning"
    schema: {"loadingURI":"file:/D:/wolox/build/resources/test/listadoUsuarioSchema.json#","pointer":"/properties/previous_page_link"}
    domain: "syntax"
    ignored: ["$id","examples"]
warning: the following keywords are unknown and will be ignored: [$id, examples]
    level: "warning"
    schema: {"loadingURI":"file:/D:/wolox/build/resources/test/listadoUsuarioSchema.json#","pointer":"/properties/total_count"}
    domain: "syntax"
    ignored: ["$id","examples"]
warning: the following keywords are unknown and will be ignored: [$id, examples]
    level: "warning"
    schema: {"loadingURI":"file:/D:/wolox/build/resources/test/listadoUsuarioSchema.json#","pointer":"/properties/total_pages"}
    domain: "syntax"
    ignored: ["$id","examples"]
error: object has missing required properties (["current_page_link","first_page_link","last_page_link","n_page_link","next_page_link","previous_page_link"])
    level: "error"
    schema: {"loadingURI":"file:/D:/wolox/build/resources/test/listadoUsuarioSchema.json#","pointer":""}
    instance: {"pointer":""}
    domain: "validation"
    keyword: "required"
    required: ["count","current_page","current_page_link","first_page_link","last_page_link","limit","n_page_link","next_page","next_page_link","offset","page","previous_page","previous_page_link","total_count","total_pages"]
    missing: ["current_page_link","first_page_link","last_page_link","n_page_link","next_page_link","previous_page_link"]

  Actual: {"total_count":273,"count":10,"total_pages":28,"limit":10,"offset":0,"current_page":1,"page":[{"first_name":"Hernan","last_name":"Garcia98","email":"hernan003@wolox.com.ar","role":"regular"},{"first_name":"Hernan","last_name":"Garcia","email":"hernan000@wolox.com.ar","role":"regular"},{"first_name":"Ricardo","last_name":"Pantoja","email":"emilia.nava@wolox.com.ar","role":"regular"},{"first_name":"Hernan","last_name":"Garcia","email":"h6@wolox.com.ar","role":"regular"},{"first_name":"5","last_name":"4","email":"alfredo.cedillo@wolox.com.ar","role":"regular"},{"first_name":"Tomás","last_name":"Griego","email":"mayte.aguilera@wolox.com.ar","role":"regular"},{"first_name":"Jose Antonio","last_name":"Bermudez","email":"jose.beruda@wolox.com.ar","role":"regular"},{"first_name":"Juan","last_name":"Perez","email":"jperez@wolox.com.ar","role":"regular"},{"first_name":"Hernan","last_name":"Garcia","email":"h7@wolox.com.ar","role":"regular"},{"first_name":"1","last_name":"4","email":"miguel.contreras@wolox.com.ar","role":"regular"}],"previous_page":null,"next_page":2}
</failure><system-err>1 expectation failed.
Response body doesn't match expectation.
Expected: The content to match the given JSON schema.
warning: the following keywords are unknown and will be ignored: [$id, examples]
    level: "warning"
    schema: {"loadingURI":"file:/D:/wolox/build/resources/test/listadoUsuarioSchema.json#","pointer":""}
    domain: "syntax"
    ignored: ["$id","examples"]
warning: the following keywords are unknown and will be ignored: [$id, examples]
    level: "warning"
    schema: {"loadingURI":"file:/D:/wolox/build/resources/test/listadoUsuarioSchema.json#","pointer":"/properties/count"}
    domain: "syntax"
    ignored: ["$id","examples"]
warning: the following keywords are unknown and will be ignored: [$id, examples]
    level: "warning"
    schema: {"loadingURI":"file:/D:/wolox/build/resources/test/listadoUsuarioSchema.json#","pointer":"/properties/current_page"}
    domain: "syntax"
    ignored: ["$id","examples"]
warning: the following keywords are unknown and will be ignored: [$id, examples]
    level: "warning"
    schema: {"loadingURI":"file:/D:/wolox/build/resources/test/listadoUsuarioSchema.json#","pointer":"/properties/current_page_link"}
    domain: "syntax"
    ignored: ["$id","examples"]
warning: the following keywords are unknown and will be ignored: [$id, examples]
    level: "warning"
    schema: {"loadingURI":"file:/D:/wolox/build/resources/test/listadoUsuarioSchema.json#","pointer":"/properties/first_page_link"}
    domain: "syntax"
    ignored: ["$id","examples"]
warning: the following keywords are unknown and will be ignored: [$id, examples]
    level: "warning"
    schema: {"loadingURI":"file:/D:/wolox/build/resources/test/listadoUsuarioSchema.json#","pointer":"/properties/last_page_link"}
    domain: "syntax"
    ignored: ["$id","examples"]
warning: the following keywords are unknown and will be ignored: [$id, examples]
    level: "warning"
    schema: {"loadingURI":"file:/D:/wolox/build/resources/test/listadoUsuarioSchema.json#","pointer":"/properties/limit"}
    domain: "syntax"
    ignored: ["$id","examples"]
warning: the following keywords are unknown and will be ignored: [$id, examples]
    level: "warning"
    schema: {"loadingURI":"file:/D:/wolox/build/resources/test/listadoUsuarioSchema.json#","pointer":"/properties/n_page_link"}
    domain: "syntax"
    ignored: ["$id","examples"]
warning: the following keywords are unknown and will be ignored: [$id, examples]
    level: "warning"
    schema: {"loadingURI":"file:/D:/wolox/build/resources/test/listadoUsuarioSchema.json#","pointer":"/properties/next_page"}
    domain: "syntax"
    ignored: ["$id","examples"]
warning: the following keywords are unknown and will be ignored: [$id, examples]
    level: "warning"
    schema: {"loadingURI":"file:/D:/wolox/build/resources/test/listadoUsuarioSchema.json#","pointer":"/properties/next_page_link"}
    domain: "syntax"
    ignored: ["$id","examples"]
warning: the following keywords are unknown and will be ignored: [$id, examples]
    level: "warning"
    schema: {"loadingURI":"file:/D:/wolox/build/resources/test/listadoUsuarioSchema.json#","pointer":"/properties/offset"}
    domain: "syntax"
    ignored: ["$id","examples"]
warning: the following keywords are unknown and will be ignored: [$id, examples]
    level: "warning"
    schema: {"loadingURI":"file:/D:/wolox/build/resources/test/listadoUsuarioSchema.json#","pointer":"/properties/page"}
    domain: "syntax"
    ignored: ["$id","examples"]
warning: the following keywords are unknown and will be ignored: [$id]
    level: "warning"
    schema: {"loadingURI":"file:/D:/wolox/build/resources/test/listadoUsuarioSchema.json#","pointer":"/properties/page/items"}
    domain: "syntax"
    ignored: ["$id"]
warning: the following keywords are unknown and will be ignored: [$id, examples]
    level: "warning"
    schema: {"loadingURI":"file:/D:/wolox/build/resources/test/listadoUsuarioSchema.json#","pointer":"/properties/page/items/anyOf/0"}
    domain: "syntax"
    ignored: ["$id","examples"]
warning: the following keywords are unknown and will be ignored: [$id, examples]
    level: "warning"
    schema: {"loadingURI":"file:/D:/wolox/build/resources/test/listadoUsuarioSchema.json#","pointer":"/properties/page/items/anyOf/0/properties/email"}
    domain: "syntax"
    ignored: ["$id","examples"]
warning: the following keywords are unknown and will be ignored: [$id, examples]
    level: "warning"
    schema: {"loadingURI":"file:/D:/wolox/build/resources/test/listadoUsuarioSchema.json#","pointer":"/properties/page/items/anyOf/0/properties/first_name"}
    domain: "syntax"
    ignored: ["$id","examples"]
warning: the following keywords are unknown and will be ignored: [$id, examples]
    level: "warning"
    schema: {"loadingURI":"file:/D:/wolox/build/resources/test/listadoUsuarioSchema.json#","pointer":"/properties/page/items/anyOf/0/properties/last_name"}
    domain: "syntax"
    ignored: ["$id","examples"]
warning: the following keywords are unknown and will be ignored: [$id, examples]
    level: "warning"
    schema: {"loadingURI":"file:/D:/wolox/build/resources/test/listadoUsuarioSchema.json#","pointer":"/properties/page/items/anyOf/0/properties/role"}
    domain: "syntax"
    ignored: ["$id","examples"]
warning: the following keywords are unknown and will be ignored: [$id, examples]
    level: "warning"
    schema: {"loadingURI":"file:/D:/wolox/build/resources/test/listadoUsuarioSchema.json#","pointer":"/properties/previous_page"}
    domain: "syntax"
    ignored: ["$id","examples"]
warning: the following keywords are unknown and will be ignored: [$id, examples]
    level: "warning"
    schema: {"loadingURI":"file:/D:/wolox/build/resources/test/listadoUsuarioSchema.json#","pointer":"/properties/previous_page_link"}
    domain: "syntax"
    ignored: ["$id","examples"]
warning: the following keywords are unknown and will be ignored: [$id, examples]
    level: "warning"
    schema: {"loadingURI":"file:/D:/wolox/build/resources/test/listadoUsuarioSchema.json#","pointer":"/properties/total_count"}
    domain: "syntax"
    ignored: ["$id","examples"]
warning: the following keywords are unknown and will be ignored: [$id, examples]
    level: "warning"
    schema: {"loadingURI":"file:/D:/wolox/build/resources/test/listadoUsuarioSchema.json#","pointer":"/properties/total_pages"}
    domain: "syntax"
    ignored: ["$id","examples"]
error: object has missing required properties (["current_page_link","first_page_link","last_page_link","n_page_link","next_page_link","previous_page_link"])
    level: "error"
    schema: {"loadingURI":"file:/D:/wolox/build/resources/test/listadoUsuarioSchema.json#","pointer":""}
    instance: {"pointer":""}
    domain: "validation"
    keyword: "required"
    required: ["count","current_page","current_page_link","first_page_link","last_page_link","limit","n_page_link","next_page","next_page_link","offset","page","previous_page","previous_page_link","total_count","total_pages"]
    missing: ["current_page_link","first_page_link","last_page_link","n_page_link","next_page_link","previous_page_link"]

  Actual: {"total_count":273,"count":10,"total_pages":28,"limit":10,"offset":0,"current_page":1,"page":[{"first_name":"Hernan","last_name":"Garcia98","email":"hernan003@wolox.com.ar","role":"regular"},{"first_name":"Hernan","last_name":"Garcia","email":"hernan000@wolox.com.ar","role":"regular"},{"first_name":"Ricardo","last_name":"Pantoja","email":"emilia.nava@wolox.com.ar","role":"regular"},{"first_name":"Hernan","last_name":"Garcia","email":"h6@wolox.com.ar","role":"regular"},{"first_name":"5","last_name":"4","email":"alfredo.cedillo@wolox.com.ar","role":"regular"},{"first_name":"Tomás","last_name":"Griego","email":"mayte.aguilera@wolox.com.ar","role":"regular"},{"first_name":"Jose Antonio","last_name":"Bermudez","email":"jose.beruda@wolox.com.ar","role":"regular"},{"first_name":"Juan","last_name":"Perez","email":"jperez@wolox.com.ar","role":"regular"},{"first_name":"Hernan","last_name":"Garcia","email":"h7@wolox.com.ar","role":"regular"},{"first_name":"1","last_name":"4","email":"miguel.contreras@wolox.com.ar","role":"regular"}],"previous_page":null,"next_page":2}
&#13;
com.prueba.stepdefinitions.ComunStepDefinition.validoElEsquemaDelResponseConElEsquemaEsquema(ComunStepDefinition.java:30)&#13;
✽.valido el esquema del response con el esquema "listadoUsuarioSchema.json"(file:///D:/wolox/src/test/resources/com/prueba/features/listadoUsuario.feature:26)&#13;
</system-err></testcase><testcase name="validar response y paginacon  como &lt;nombreEscenario&gt;"/></testsuite>